# Blender v2.69 (sub 0) OBJ File: 'mirror.blend'
# www.blender.org
mtllib mirror.mtl
o Pole_pole
v -0.043830 0.041709 0.064573
v -0.064573 0.041709 0.043830
v -0.064573 0.041709 -0.043830
v -0.043830 0.041709 -0.064573
v 0.043830 0.041709 -0.064573
v 0.064573 0.041709 -0.043830
v 0.064573 0.041709 0.043830
v 0.043830 0.041709 0.064573
v -0.041972 0.558291 0.021230
v -0.021230 0.558291 0.041972
v -0.021230 0.558291 -0.041972
v -0.041972 0.558291 -0.021230
v 0.041972 0.558291 -0.021230
v 0.021230 0.558291 -0.041972
v 0.021230 0.558291 0.041972
v 0.041972 0.558291 0.021230
vt 0.247794 0.765477
vt 0.247366 0.775286
vt 0.002837 0.764598
vt 0.003266 0.754789
vt 0.247366 0.795365
vt 0.247794 0.805175
vt 0.003266 0.815862
vt 0.002837 0.806053
vt 0.002837 0.857313
vt 0.247494 0.850134
vt 0.247782 0.859948
vt 0.003125 0.867128
vt 0.002837 0.939351
vt 0.002837 0.919271
vt 0.247366 0.908583
vt 0.247366 0.950038
vt 0.247782 0.830057
vt 0.003432 0.815862
vt 0.257613 0.999551
vt 0.247794 0.999551
vt 0.247794 0.754789
vt 0.257613 0.754789
vt 0.002837 0.897895
vt 0.002837 0.877816
vt 0.247366 0.867128
usemtl Material
s off
f 14/1 13/2 6/3 5/4
f 16/5 15/6 8/7 7/8
f 1/9 10/10 9/11 2/12
f 9/13 12/14 3/15 2/16
f 13/2 16/5 7/8 6/3
f 15/17 10/10 1/9 8/18
f 12/19 11/20 4/21 3/22
f 11/23 14/24 5/25 4/15
o Head_mirror
v 0.100013 0.150000 0.247972
v 0.100013 0.252028 0.350000
v 0.100013 0.252028 -0.350000
v 0.100013 0.150000 -0.247972
v 0.125013 0.150000 -0.247972
v 0.125013 0.252028 -0.350000
v 0.125013 0.252028 0.350000
v 0.125013 0.150000 0.247972
v 0.100013 0.747972 0.350000
v 0.100013 0.850000 0.247972
v 0.100013 0.850000 -0.247972
v 0.100013 0.747972 -0.350000
v 0.125013 0.747972 -0.350000
v 0.125013 0.850000 -0.247972
v 0.125013 0.850000 0.247972
v 0.125013 0.747972 0.350000
v 0.102187 0.400000 -0.081525
v 0.102187 0.418475 -0.100000
v 0.102187 0.418475 0.100000
v 0.102187 0.400000 0.081525
v 0.102187 0.581525 -0.100000
v 0.102187 0.600000 -0.081525
v 0.102187 0.600000 0.081525
v 0.102187 0.581525 0.100000
v -0.078225 0.429433 0.052091
v -0.097813 0.452610 0.040619
v -0.078225 0.447909 0.070567
v -0.097813 0.459381 0.047390
v -0.078225 0.447909 -0.070567
v -0.097813 0.459381 -0.047390
v -0.078225 0.429433 -0.052091
v -0.097813 0.452610 -0.040619
v -0.078225 0.552091 0.070567
v -0.097813 0.540619 0.047390
v -0.078225 0.570567 0.052091
v -0.097813 0.547390 0.040619
v -0.078225 0.570567 -0.052091
v -0.097813 0.547390 -0.040619
v -0.078225 0.552091 -0.070567
v -0.097813 0.540619 -0.047390
vt 0.977390 0.586523
vt 0.977398 0.760105
vt 0.968650 0.760106
vt 0.968635 0.586524
vt 0.968602 0.311239
vt 0.968626 0.136555
vt 0.977434 0.136556
vt 0.977400 0.311240
vt 0.977398 0.984008
vt 0.968656 0.984008
vt 0.968654 0.810581
vt 0.977398 0.810580
vt 0.968608 0.361973
vt 0.977389 0.361973
vt 0.977391 0.535967
vt 0.968626 0.535968
vt 0.968633 0.085712
vt 0.977443 0.085713
vt 0.613235 0.170253
vt 0.877234 0.170253
vt 0.931545 0.224564
vt 0.931545 0.488563
vt 0.872563 0.598722
vt 0.554037 0.917248
vt 0.554037 0.653070
vt 0.608385 0.598722
vt 0.926911 0.653070
vt 0.608384 0.971596
vt 0.926910 0.917248
vt 0.872563 0.971596
vt 0.558925 0.488563
vt 0.558925 0.224564
vt 0.877234 0.542874
vt 0.613236 0.542874
vt 0.122237 0.366770
vt 0.044399 0.354237
vt 0.044399 0.309874
vt 0.122237 0.297340
vt 0.044399 0.276940
vt 0.122237 0.289473
vt 0.120971 0.297340
vt 0.043132 0.284807
vt 0.120971 0.374638
vt 0.043132 0.362104
vt 0.200076 0.374638
vt 0.122237 0.362104
vt 0.123504 0.354237
vt 0.201343 0.366770
vt 0.123504 0.309874
vt 0.201343 0.297340
vt 0.122237 0.220043
vt 0.044399 0.232577
vt 0.123504 0.276940
vt 0.123504 0.232577
vt 0.201343 0.220043
vt 0.201343 0.289473
vt 0.200076 0.297340
vt 0.122237 0.284807
vt 0.122237 0.378162
vt 0.122237 0.382239
vt 0.111804 0.385763
vt 0.111804 0.374638
vt 0.172466 0.382239
vt 0.172466 0.378162
vt 0.182899 0.374638
vt 0.182899 0.385763
vt 0.099207 0.382514
vt 0.099207 0.378437
vt 0.109640 0.374912
vt 0.109640 0.386038
vt 0.182899 0.382239
vt 0.182899 0.378162
vt 0.193332 0.374638
vt 0.193332 0.385763
vt 0.211212 0.220043
vt 0.211212 0.264407
vt 0.201343 0.259521
vt 0.201343 0.224928
vt 0.211212 0.297340
vt 0.211212 0.341704
vt 0.201343 0.336819
vt 0.201343 0.302226
vt 0.122237 0.419001
vt 0.122237 0.374638
vt 0.132107 0.379523
vt 0.132107 0.414116
vt 0.201343 0.386067
vt 0.201343 0.341704
vt 0.211212 0.346589
vt 0.211212 0.381182
vt 0.172466 0.414116
vt 0.134990 0.376640
vt 0.169583 0.376640
vt 0.172466 0.379523
vt 0.169583 0.416999
vt 0.134990 0.416999
usemtl Material
s off
f 17/26 20/27 21/28 24/29
f 31/30 30/31 27/32 26/33
f 28/34 29/35 22/36 19/37
f 32/38 25/39 18/40 23/41
f 27/32 30/31 29/42 28/43
f 21/28 20/27 19/37 22/36
f 31/30 26/33 25/39 32/38
f 17/26 24/29 23/41 18/40
f 26/44 27/45 28/46 19/47
f 21/48 32/49 23/50 24/51
f 22/52 31/53 32/49 21/48
f 29/54 30/55 31/53 22/52
f 18/56 25/57 20/58 17/59
f 25/57 26/44 19/47 20/58
f 40/60 49/61 43/62 35/63
f 53/64 38/65 37/66 55/67
f 39/68 51/69 49/61 40/60
f 33/70 47/71 45/72 34/73
f 55/74 37/75 34/73 45/72
f 39/76 38/65 53/64 51/77
f 41/78 47/79 33/80 36/81
f 41/78 36/81 35/82 43/83
f 56/84 54/85 53/86 55/87
f 48/88 46/89 45/90 47/91
f 52/92 50/93 49/94 51/95
f 44/96 42/97 41/98 43/99
f 43/100 49/101 50/102 44/103
f 51/104 53/105 54/106 52/107
f 55/108 45/109 46/110 56/111
f 47/112 41/113 42/114 48/115
f 50/116 48/117 42/118 44/119
f 50/116 52/120 46/110 48/117
f 46/110 52/120 54/121 56/111
o Base_cube
v -0.200000 0.000000 0.200000
v -0.200000 0.000000 -0.200000
v 0.200000 0.000000 -0.200000
v 0.200000 0.000000 0.200000
v -0.200000 0.029366 0.200000
v -0.186928 0.050000 0.186928
v -0.200000 0.029366 -0.200000
v -0.186928 0.050000 -0.186928
v 0.200000 0.029366 -0.200000
v 0.186928 0.050000 -0.186928
v 0.200000 0.029366 0.200000
v 0.186928 0.050000 0.186928
vt 0.280423 0.693114
vt 0.521977 0.693114
vt 0.521977 0.934668
vt 0.280423 0.934668
vt 0.298645 0.434668
vt 0.298645 0.693114
vt 0.280423 0.434668
vt 0.365405 0.434668
vt 0.365405 0.693114
vt 0.347182 0.693114
vt 0.347182 0.434668
vt 0.021977 0.693114
vt 0.021977 0.434668
vt 0.332025 0.434668
vt 0.332025 0.693114
vt 0.313803 0.693114
vt 0.313803 0.434668
vt 0.380562 0.443114
vt 0.380562 0.684667
vt 0.347182 0.443114
vt 0.347182 0.684667
vt 0.313803 0.443114
vt 0.313803 0.684667
vt 0.271977 0.726493
vt 0.030423 0.726493
vt 0.021977 0.711336
vt 0.280423 0.711336
usemtl Material
s off
f 68/122 66/123 64/124 62/125
f 65/126 67/127 60/122 59/128
f 61/129 63/130 58/131 57/132
f 57/122 58/133 59/134 60/128
f 63/135 65/136 59/137 58/138
f 62/139 64/140 63/130 61/129
f 64/141 66/142 65/136 63/135
f 66/143 68/144 67/127 65/126
f 68/145 62/146 61/147 67/148
f 67/148 61/147 57/133 60/122
